<?xml version="1.0" encoding="UTF-8" standalone="no"?>
<!-- Created with Inkscape (http://www.inkscape.org/) -->

<svg
   xmlns:dc="http://purl.org/dc/elements/1.1/"
   xmlns:cc="http://creativecommons.org/ns#"
   xmlns:rdf="http://www.w3.org/1999/02/22-rdf-syntax-ns#"
   xmlns:svg="http://www.w3.org/2000/svg"
   xmlns="http://www.w3.org/2000/svg"
   xmlns:sodipodi="http://sodipodi.sourceforge.net/DTD/sodipodi-0.dtd"
   xmlns:inkscape="http://www.inkscape.org/namespaces/inkscape"
   width="36.680241mm"
   height="22.032677mm"
   viewBox="0 0 129.96936 78.068539"
   id="svg4282"
   version="1.1"
   inkscape:version="0.91 r13725"
   sodipodi:docname="project_arrow.svg">
  <defs
     id="defs4284" />
  <sodipodi:namedview
     id="base"
     pagecolor="#ffffff"
     bordercolor="#666666"
     borderopacity="1.0"
     inkscape:pageopacity="0.0"
     inkscape:pageshadow="2"
     inkscape:zoom="5.6"
     inkscape:cx="61.670128"
     inkscape:cy="32.928167"
     inkscape:document-units="px"
     inkscape:current-layer="layer1"
     showgrid="false"
     fit-margin-top="0"
     fit-margin-left="0"
     fit-margin-right="0"
     fit-margin-bottom="0"
     inkscape:window-width="1366"
     inkscape:window-height="681"
     inkscape:window-x="0"
     inkscape:window-y="24"
     inkscape:window-maximized="1" />
  <metadata
     id="metadata4287">
    <rdf:RDF>
      <cc:Work
         rdf:about="">
        <dc:format>image/svg+xml</dc:format>
        <dc:type
           rdf:resource="http://purl.org/dc/dcmitype/StillImage" />
        <dc:title></dc:title>
      </cc:Work>
    </rdf:RDF>
  </metadata>
  <g
     inkscape:label="Vrstva 1"
     inkscape:groupmode="layer"
     id="layer1"
     transform="translate(-229.55307,-224.34601)">
    <g
       id="g4163"
       transform="translate(72.5,36.785714)">
      <path
         inkscape:connector-curvature="0"
         d="m 281.20922,265.62884 c -9.89795,-0.29673 -19.59886,-3.03666 -28.85036,-6.41174 -4.09996,-1.49572 -8.16284,-3.10554 -12.14295,-4.89594 -4.48218,-2.01625 -8.81758,-4.34408 -13.22638,-6.51611 -13.73073,-7.33398 -26.60064,-16.1439 -38.5196,-26.1475 -3.55522,-2.98391 -6.97566,-6.12755 -10.35622,-9.30798 -6.43294,-6.0521 -9.42019,-9.40614 -15.26449,-15.63293 -1.67002,-1.876 -3.34004,-3.752 -5.01006,-5.62799 0,0 4.83918,-2.90169 4.83918,-2.90169 l 0,0 c 1.49915,1.97139 2.99829,3.94278 4.49743,5.91416 5.64152,6.75322 7.83948,9.65711 14.33141,16.14933 3.2546,3.25474 6.57806,6.44812 10.05609,9.46293 11.76416,10.19735 24.69427,18.9212 38.54597,26.03069 4.51895,2.08624 8.9604,4.34927 13.55685,6.25873 4.11078,1.7077 8.30711,3.215 12.54287,4.5836 9.91392,3.20326 20.33993,5.55539 30.81347,4.8189 0,0 -5.81321,4.22354 -5.81321,4.22354 z"
         id="path4238"
         style="fill:#818181;fill-opacity:1;stroke:none;stroke-opacity:1" />
      <path
         inkscape:connector-curvature="0"
         d="m 163.68178,187.5603 c -0.51441,5.94716 -0.36646,11.91135 0.007,17.85984 0.22738,3.39496 0.81707,6.74356 1.57057,10.05574 0,0 -6.26208,3.3332 -6.26208,3.3332 l 0,0 c -0.47272,-3.4544 -0.89029,-6.91861 -1.08507,-10.40172 -0.3361,-5.82128 -0.50016,-11.65041 -0.85913,-17.46945 0,0 6.62894,-3.37761 6.62894,-3.37761 z"
         id="path4240"
         style="fill:#818181;fill-opacity:1;stroke:none;stroke-opacity:1" />
      <path
         inkscape:connector-curvature="0"
         d="m 164.39493,188.1019 c 2.95191,2.44552 6.63053,3.77129 10.20022,5.02959 3.0974,1.04114 6.25809,1.92235 9.48539,2.45219 0,0 -6.04552,4.20956 -6.04552,4.20956 l 0,0 c -3.10487,-0.75999 -6.14441,-1.76947 -9.17104,-2.79043 -3.7209,-1.3404 -7.49891,-2.70542 -10.78915,-4.94868 0,0 6.3201,-3.95223 6.3201,-3.95223 z"
         id="path4242"
         style="fill:#818181;fill-opacity:1;stroke:none;stroke-opacity:1" />
    </g>
  </g>
</svg>
